%!PS-Adobe-3.0 EPSF-3.0
%%Creator: cairo 1.16.0 (https://cairographics.org)
%%CreationDate: Wed Nov 23 08:13:47 2022
%%Pages: 1
%%DocumentData: Clean7Bit
%%LanguageLevel: 2
%%BoundingBox: 0 0 1000 1000
%%EndComments
%%BeginProlog
50 dict begin
/q { gsave } bind def
/Q { grestore } bind def
/cm { 6 array astore concat } bind def
/w { setlinewidth } bind def
/J { setlinecap } bind def
/j { setlinejoin } bind def
/M { setmiterlimit } bind def
/d { setdash } bind def
/m { moveto } bind def
/l { lineto } bind def
/c { curveto } bind def
/h { closepath } bind def
/re { exch dup neg 3 1 roll 5 3 roll moveto 0 rlineto
      0 exch rlineto 0 rlineto closepath } bind def
/S { stroke } bind def
/f { fill } bind def
/f* { eofill } bind def
/n { newpath } bind def
/W { clip } bind def
/W* { eoclip } bind def
/BT { } bind def
/ET { } bind def
/BDC { mark 3 1 roll /BDC pdfmark } bind def
/EMC { mark /EMC pdfmark } bind def
/cairo_store_point { /cairo_point_y exch def /cairo_point_x exch def } def
/Tj { show currentpoint cairo_store_point } bind def
/TJ {
  {
    dup
    type /stringtype eq
    { show } { -0.001 mul 0 cairo_font_matrix dtransform rmoveto } ifelse
  } forall
  currentpoint cairo_store_point
} bind def
/cairo_selectfont { cairo_font_matrix aload pop pop pop 0 0 6 array astore
    cairo_font exch selectfont cairo_point_x cairo_point_y moveto } bind def
/Tf { pop /cairo_font exch def /cairo_font_matrix where
      { pop cairo_selectfont } if } bind def
/Td { matrix translate cairo_font_matrix matrix concatmatrix dup
      /cairo_font_matrix exch def dup 4 get exch 5 get cairo_store_point
      /cairo_font where { pop cairo_selectfont } if } bind def
/Tm { 2 copy 8 2 roll 6 array astore /cairo_font_matrix exch def
      cairo_store_point /cairo_font where { pop cairo_selectfont } if } bind def
/g { setgray } bind def
/rg { setrgbcolor } bind def
/d1 { setcachedevice } bind def
/cairo_data_source {
  CairoDataIndex CairoData length lt
    { CairoData CairoDataIndex get /CairoDataIndex CairoDataIndex 1 add def }
    { () } ifelse
} def
/cairo_flush_ascii85_file { cairo_ascii85_file status { cairo_ascii85_file flushfile } if } def
/cairo_image { image cairo_flush_ascii85_file } def
/cairo_imagemask { imagemask cairo_flush_ascii85_file } def
%%EndProlog
%%BeginSetup
%%EndSetup
%%Page: 1 1
%%BeginPageSetup
%%PageBoundingBox: 0 0 1000 1000
%%EndPageSetup
q 0 0 1000 1000 rectclip
1 0 0 -1 0 1000 cm q
1 g
0 0 1000 1000 rectfill
Q q
150.316 199 699.293 124 re W n
0 g
159.941 290.695 m 160.277 294.52 161.719 298.18 164.262 301.668 c 166.785
 305.156 170.273 307.992 174.73 310.18 c 179.164 312.383 184.254 313.488
 189.992 313.488 c 198.66 313.488 205.895 311.539 211.703 307.645 c 217.488
 303.773 220.383 297.617 220.383 289.176 c 220.383 284.223 218.973 280.082
 216.16 276.75 c 213.348 273.441 209.855 270.797 205.695 268.816 c 201.531
 266.855 195.844 264.582 188.641 261.992 c 180.875 259.293 174.664 256.785
 170.004 254.465 c 165.32 252.168 161.367 249.051 158.152 245.109 c 154.953
 241.172 153.355 236.105 153.355 229.918 c 153.355 224.965 154.766 220.258
 157.578 215.801 c 160.391 211.367 164.645 207.777 170.34 205.031 c 176.012
 202.262 183.012 200.879 191.344 200.879 c 196.855 200.879 201.414 201.273
 205.02 202.059 c 208.621 202.848 212.277 204.145 215.992 205.941 c 213.121
 214.891 l 206.707 211.625 199.559 209.996 191.68 209.996 c 183.012 209.996
 176.09 211.793 170.914 215.398 c 165.738 219 163.148 224.008 163.148 230.422
 c 163.148 234.477 164.441 237.875 167.031 240.621 c 169.621 243.391 172.805
 245.617 176.586 247.305 c 180.344 248.996 185.602 251.02 192.355 253.383
 c 200.57 256.195 207.215 258.809 212.277 261.219 c 217.344 263.648 221.656
 267.082 225.211 271.516 c 228.746 275.973 230.512 281.578 230.512 288.332
 c 230.512 298.688 227.227 306.98 220.652 313.219 c 214.059 319.473 203.895
 322.605 190.16 322.605 c 181.832 322.605 174.719 321.051 168.82 317.945
 c 162.902 314.863 158.398 310.863 155.316 305.957 c 152.207 301.07 150.543
 295.984 150.316 290.695 c h
320.328 289.512 m 320.328 300.883 316.875 309.234 309.961 314.566 c 303.031
 319.926 294.723 322.605 285.043 322.605 c 278.965 322.605 273.227 321.5
 267.824 319.293 c 262.422 317.109 258.008 313.543 254.586 308.59 c 251.141
 303.637 249.422 297.281 249.422 289.512 c 249.422 235.148 l 249.422 223.559
 252.594 214.777 258.941 208.812 c 265.312 202.848 274.07 199.863 285.211
 199.863 c 296.355 199.863 305 203.016 311.145 209.32 c 317.266 215.625 
320.328 224.289 320.328 235.32 c h
311.043 233.629 m 311.043 225.414 308.656 219.223 303.883 215.059 c 299.09
 210.895 292.754 208.812 284.875 208.812 c 276.996 208.812 270.691 210.895
 265.965 215.059 c 261.238 219.223 258.875 225.414 258.875 233.629 c 258.875
 289.344 l 258.875 297.336 261.316 303.383 266.203 307.477 c 271.109 311.598
 277.336 313.656 284.875 313.656 c 292.527 313.656 298.809 311.652 303.715
 307.645 c 308.602 303.66 311.043 297.504 311.043 289.176 c h
344.641 320.746 m 344.641 202.566 l 401.027 202.566 l 401.027 211.516 l
 354.094 211.516 l 354.094 251.02 l 382.965 251.02 l 379.082 260.305 l 354.094
 260.305 l 354.094 320.746 l h
435.301 320.746 m 435.301 211.008 l 406.602 211.008 l 406.602 202.566 l
 474.469 202.566 l 474.469 211.008 l 444.758 211.008 l 444.758 320.746 l
 h
563.273 320.746 m 546.559 219.617 l 529.848 320.746 l 515.496 320.746 l
 487.637 202.566 l 497.77 202.566 l 521.91 309.098 l 539.977 202.566 l 553.145
 202.566 l 571.211 309.098 l 595.016 202.566 l 605.145 202.566 l 577.625
 320.746 l h
673.012 320.746 m 659.508 279.383 l 621.016 279.383 l 607.844 320.746 l
 597.883 320.746 l 635.703 202.566 l 644.648 202.566 l 683.145 320.746 l
 h
640.09 217.254 m 623.715 270.098 l 656.977 270.098 l h
761.816 320.746 m 747.469 278.879 l 745.441 279.215 743.188 279.383 740.715
 279.383 c 707.453 279.383 l 707.453 320.746 l 698 320.746 l 698 202.566
 l 739.531 202.566 l 750.227 202.566 758.18 205.832 763.406 212.359 c 768.648
 218.887 771.273 227.664 771.273 238.695 c 771.273 247.137 770.336 254.621
 768.469 261.148 c 766.621 267.676 762.605 272.629 756.414 276.008 c 771.441
 320.746 l h
740.883 270.098 m 747.188 270.098 751.879 268.41 754.965 265.031 c 758.07
 261.656 759.984 257.832 760.703 253.551 c 761.445 249.273 761.816 244.492
 761.816 239.203 c 761.816 229.973 759.902 223.051 756.078 218.438 c 752.25
 213.82 746.961 211.516 740.207 211.516 c 707.453 211.516 l 707.453 270.098
 l h
793.219 320.746 m 793.219 202.566 l 849.609 202.566 l 849.609 211.344 l
 802.676 211.344 l 802.676 251.02 l 834.922 251.02 l 831.715 260.305 l 802.676
 260.305 l 802.676 312.305 l 849.27 312.305 l 849.27 320.746 l h
793.219 320.746 m f
Q q
0 g
157.238 453.617 m 157.238 335.434 l 213.629 335.434 l 213.629 344.383 l
 166.695 344.383 l 166.695 383.891 l 195.562 383.891 l 191.68 393.176 l 
166.695 393.176 l 166.695 453.617 l h
300.746 422.383 m 300.746 433.75 297.289 442.102 290.379 447.438 c 283.445
 452.797 275.141 455.473 265.461 455.473 c 259.383 455.473 253.641 454.367
 248.238 452.164 c 242.836 449.98 238.422 446.414 235.004 441.461 c 231.559
 436.508 229.836 430.148 229.836 422.383 c 229.836 368.02 l 229.836 356.426
 233.02 347.648 239.391 341.684 c 245.738 335.715 254.484 332.734 265.629
 332.734 c 276.77 332.734 285.406 335.883 291.527 342.188 c 297.672 348.492
 300.746 357.156 300.746 368.188 c h
291.457 366.5 m 291.457 358.285 289.07 352.09 284.301 347.93 c 279.504 
343.766 273.168 341.684 265.289 341.684 c 257.414 341.684 251.109 343.766
 246.383 347.93 c 241.652 352.09 239.289 358.285 239.289 366.5 c 239.289
 422.215 l 239.289 430.207 241.746 436.25 246.652 440.344 c 251.539 444.465
 257.75 446.523 265.289 446.523 c 272.945 446.523 279.227 444.523 284.133
 440.516 c 289.016 436.531 291.457 430.375 291.457 422.043 c h
388.875 453.617 m 374.523 411.746 l 372.496 412.082 370.246 412.254 367.77
 412.254 c 334.512 412.254 l 334.512 453.617 l 325.055 453.617 l 325.055
 335.434 l 366.59 335.434 l 377.281 335.434 385.25 338.699 390.496 345.227
 c 395.719 351.754 398.328 360.531 398.328 371.566 c 398.328 380.008 397.406
 387.492 395.559 394.02 c 393.691 400.547 389.66 405.5 383.473 408.875 c
 398.496 453.617 l h
367.938 402.965 m 374.242 402.965 378.945 401.277 382.051 397.902 c 385.137
 394.523 387.051 390.699 387.793 386.422 c 388.512 382.145 388.875 377.363
 388.875 372.07 c 388.875 362.844 386.957 355.922 383.133 351.305 c 379.309
 346.688 374.016 344.383 367.262 344.383 c 334.512 344.383 l 334.512 402.965
 l h
531.195 453.617 m 517.691 412.254 l 479.195 412.254 l 466.027 453.617 l
 456.066 453.617 l 493.887 335.434 l 502.832 335.434 l 541.328 453.617 l
 h
498.273 350.125 m 481.898 402.965 l 515.156 402.965 l h
498.273 350.125 m f
157.238 586.484 m 157.238 468.305 l 194.551 468.305 l 203.777 468.305 211.039
 470.668 216.328 475.395 c 221.621 480.121 224.266 487.324 224.266 497.004
 c 224.266 501.395 223.531 505.559 222.07 509.5 c 220.609 513.438 217.621
 516.926 213.121 519.965 c 212.953 520.305 l 212.953 520.473 l 217.906 522.723
 222.047 526.383 225.379 531.445 c 228.688 536.512 230.344 543.094 230.344
 551.199 c 230.344 560.879 227.734 569.172 222.508 576.086 c 217.266 583.016
 208.453 586.484 196.07 586.484 c h
194.215 516.758 m 200.516 516.758 205.469 515.07 209.07 511.691 c 212.672
 508.316 214.473 503.422 214.473 497.004 c 214.473 483.836 207.383 477.25
 193.199 477.25 c 166.695 477.25 l 166.695 516.758 l h
195.734 577.535 m 203.273 577.535 209.238 575.512 213.629 571.457 c 218.02
 567.406 220.211 560.426 220.211 550.523 c 220.211 542.645 218.074 536.59
 213.797 532.359 c 209.52 528.148 204.453 526.043 198.602 526.043 c 166.695
 526.043 l 166.695 577.535 l h
249.082 586.484 m 249.082 468.305 l 305.473 468.305 l 305.473 477.082 l
 258.535 477.082 l 258.535 516.758 l 290.785 516.758 l 287.574 526.043 l
 258.535 526.043 l 258.535 578.043 l 305.133 578.043 l 305.133 586.484 l
 h
343.121 586.484 m 343.121 476.746 l 314.418 476.746 l 314.418 468.305 l
 382.289 468.305 l 382.289 476.746 l 352.574 476.746 l 352.574 586.484 l
 h
410.988 586.484 m 410.988 476.746 l 382.289 476.746 l 382.289 468.305 l
 450.16 468.305 l 450.16 476.746 l 420.445 476.746 l 420.445 586.484 l h
463.328 586.484 m 463.328 468.305 l 519.715 468.305 l 519.715 477.082 l
 472.781 477.082 l 472.781 516.758 l 505.027 516.758 l 501.82 526.043 l 
472.781 526.043 l 472.781 578.043 l 519.379 578.043 l 519.379 586.484 l 
h
605.652 586.484 m 591.301 544.613 l 589.273 544.953 587.023 545.121 584.547
 545.121 c 551.289 545.121 l 551.289 586.484 l 541.832 586.484 l 541.832
 468.305 l 583.363 468.305 l 594.059 468.305 602.027 471.57 607.27 478.098
 c 612.496 484.621 615.105 493.402 615.105 504.434 c 615.105 512.875 614.184
 520.359 612.336 526.887 c 610.469 533.414 606.438 538.367 600.246 541.746
 c 615.273 586.484 l h
584.715 535.836 m 591.02 535.836 595.723 534.148 598.828 530.77 c 601.914
 527.395 603.828 523.57 604.57 519.289 c 605.289 515.012 605.652 510.23 
605.652 504.941 c 605.652 495.711 603.734 488.789 599.91 484.172 c 596.086
 479.559 590.793 477.25 584.039 477.25 c 551.289 477.25 l 551.289 535.836
 l h
584.715 535.836 m f
Q q
150.316 598 531.684 124 re W n
0 g
159.941 689.301 m 160.277 693.129 161.719 696.789 164.262 700.277 c 166.785
 703.762 170.273 706.602 174.73 708.785 c 179.164 710.988 184.254 712.094
 189.992 712.094 c 198.66 712.094 205.895 710.145 211.703 706.254 c 217.488
 702.379 220.383 696.223 220.383 687.781 c 220.383 682.828 218.973 678.688
 216.16 675.355 c 213.348 672.047 209.855 669.402 205.695 667.422 c 201.531
 665.461 195.844 663.191 188.641 660.602 c 180.875 657.898 174.664 655.391
 170.004 653.07 c 165.32 650.773 161.367 647.656 158.152 643.719 c 154.953
 639.777 153.355 634.711 153.355 628.523 c 153.355 623.57 154.766 618.867
 157.578 614.41 c 160.391 609.977 164.645 606.383 170.34 603.637 c 176.012
 600.867 183.012 599.484 191.344 599.484 c 196.855 599.484 201.414 599.879
 205.02 600.668 c 208.621 601.453 212.277 602.75 215.992 604.551 c 213.121
 613.496 l 206.707 610.23 199.559 608.602 191.68 608.602 c 183.012 608.602
 176.09 610.402 170.914 614.004 c 165.738 617.605 163.148 622.613 163.148
 629.031 c 163.148 633.082 164.441 636.48 167.031 639.227 c 169.621 641.996
 172.805 644.223 176.586 645.914 c 180.344 647.602 185.602 649.625 192.355
 651.988 c 200.57 654.805 207.215 657.418 212.277 659.824 c 217.344 662.254
 221.656 665.688 225.211 670.121 c 228.746 674.578 230.512 680.184 230.512
 686.938 c 230.512 697.293 227.227 705.586 220.652 711.824 c 214.059 718.082
 203.895 721.211 190.16 721.211 c 181.832 721.211 174.719 719.656 168.82
 716.551 c 162.902 713.469 158.398 709.469 155.316 704.562 c 152.207 699.68
 150.543 694.594 150.316 689.301 c h
320.328 688.121 m 320.328 699.488 316.875 707.84 309.961 713.176 c 303.031
 718.531 294.723 721.211 285.043 721.211 c 278.965 721.211 273.227 720.105
 267.824 717.902 c 262.422 715.715 258.008 712.152 254.586 707.199 c 251.141
 702.242 249.422 695.887 249.422 688.121 c 249.422 633.758 l 249.422 622.164
 252.594 613.387 258.941 607.418 c 265.312 601.453 274.07 598.473 285.211
 598.473 c 296.355 598.473 305 601.621 311.145 607.926 c 317.266 614.23 
320.328 622.895 320.328 633.926 c h
311.043 632.238 m 311.043 624.023 308.656 617.828 303.883 613.664 c 299.09
 609.504 292.754 607.418 284.875 607.418 c 276.996 607.418 270.691 609.504
 265.965 613.664 c 261.238 617.828 258.875 624.023 258.875 632.238 c 258.875
 687.949 l 258.875 695.941 261.316 701.988 266.203 706.082 c 271.109 710.203
 277.336 712.262 284.875 712.262 c 292.527 712.262 298.809 710.262 303.715
 706.254 c 308.602 702.27 311.043 696.113 311.043 687.781 c h
403.562 715.469 m 393.543 719.184 384.203 721.043 375.535 721.043 c 365.742
 721.043 357.809 718.453 351.73 713.273 c 345.652 708.098 342.613 699.828
 342.613 688.457 c 342.613 634.262 l 342.613 625.711 343.828 619.238 346.262
 614.848 c 348.668 610.457 352.348 606.742 357.301 603.703 c 362.254 600.891
 368.332 599.484 375.535 599.484 c 384.316 599.484 392.25 601.34 399.34 
605.055 c 396.641 611.473 l 390.223 609.109 384.145 607.926 378.406 607.926
 c 371.543 607.926 365.441 609.613 360.105 612.992 c 354.746 616.367 352.07
 622.953 352.07 632.742 c 352.07 688.121 l 352.07 695.887 354.094 701.871
 358.145 706.082 c 362.199 710.312 368.277 712.43 376.379 712.43 c 383.473
 712.43 391.855 710.801 401.535 707.535 c h
427.535 719.352 m 427.535 609.781 l 416.223 609.445 l 416.223 601.172 l
 436.988 601.172 l 436.988 719.352 l h
462.82 719.352 m 462.82 601.172 l 519.211 601.172 l 519.211 609.953 l 472.273
 609.953 l 472.273 649.625 l 504.523 649.625 l 501.312 658.914 l 472.273
 658.914 l 472.273 710.91 l 518.871 710.91 l 518.871 719.352 l h
556.859 719.352 m 556.859 609.613 l 528.156 609.613 l 528.156 601.172 l
 596.027 601.172 l 596.027 609.613 l 566.312 609.613 l 566.312 719.352 l
 h
661.195 714.289 m 664.121 713.164 666.562 711.105 668.523 708.109 c 670.504
 705.137 671.492 700.332 671.492 693.691 c 671.492 669.719 l 668.453 672.418
 664.402 674.469 659.34 675.863 c 654.273 677.281 649.434 677.988 644.82
 677.988 c 632.891 677.988 623.457 675.027 616.523 669.109 c 609.609 663.211
 606.156 654.465 606.156 642.875 c 606.156 601.172 l 615.613 601.172 l 615.613
 644.562 l 615.613 652.438 618.312 658.441 623.715 662.559 c 629.117 666.656
 636.152 668.703 644.82 668.703 c 651.461 668.703 657.254 667.297 662.207
 664.484 c 667.16 661.672 670.254 657.449 671.492 651.82 c 671.492 601.172
 l 681.117 601.172 l 681.117 693.016 l 681.117 701.23 679.574 707.672 676.492
 712.328 c 673.387 717.012 669.02 719.75 663.391 720.535 c h
661.195 714.289 m f
Q q
150.316 755.25 410.555 50.195 re W n
0 g
172.68 795.703 m 172.68 798.711 171.629 801.09 169.531 802.848 c 167.422
 804.605 164.539 805.484 160.887 805.484 c 156.629 805.484 153.184 804.77
 150.547 803.336 c 150.547 797.992 l 153.645 799.844 156.977 800.77 160.539
 800.77 c 162.664 800.77 164.285 800.352 165.395 799.52 c 166.504 798.688
 167.059 797.555 167.059 796.117 c 167.059 794.453 166.449 793.16 165.227
 792.234 c 163.996 791.309 161.949 790.266 159.082 789.109 c 156.445 788.094
 154.332 786.82 152.738 785.293 c 151.137 783.77 150.34 781.711 150.34 779.121
 c 150.34 776.207 151.438 773.879 153.641 772.141 c 155.832 770.41 158.57
 769.543 161.855 769.543 c 165.512 769.543 168.449 770.055 170.668 771.07
 c 170.668 776.273 l 168.539 774.98 165.625 774.332 161.926 774.332 c 160.074
 774.332 158.609 774.758 157.527 775.609 c 156.434 776.469 155.891 777.57
 155.891 778.91 c 155.891 779.742 156.051 780.469 156.375 781.09 c 156.699
 781.719 157.336 782.336 158.289 782.938 c 159.234 783.539 159.926 783.941
 160.371 784.145 c 160.805 784.355 161.766 784.785 163.242 785.434 c 166.203
 786.637 168.516 788 170.184 789.527 c 171.848 791.055 172.68 793.113 172.68
 795.703 c h
185.793 799.867 m 185.793 805.07 l 180.312 805.07 l 180.312 756.016 l 185.793
 756.016 l 185.793 775.164 l 188.34 771.277 191.898 769.336 196.48 769.336
 c 200.922 769.336 204.551 771.035 207.375 774.43 c 210.195 777.832 211.605
 782.289 211.605 787.793 c 211.605 792.742 210.273 796.953 207.609 800.422
 c 204.953 803.891 201.289 805.625 196.617 805.625 c 191.898 805.625 188.293
 803.707 185.793 799.867 c h
185.793 787.238 m 185.793 791.91 186.797 795.309 188.805 797.438 c 190.824
 799.566 193.266 800.629 196.133 800.629 c 198.953 800.629 201.289 799.449
 203.141 797.09 c 204.992 794.73 205.914 791.656 205.914 787.863 c 205.914
 783.516 204.953 780.168 203.031 777.828 c 201.113 775.496 198.699 774.332
 195.785 774.332 c 193.289 774.332 191 775.371 188.918 777.453 c 186.836
 779.535 185.793 782.797 185.793 787.238 c h
240.816 795.703 m 240.816 798.711 239.762 801.09 237.652 802.848 c 235.555
 804.605 232.672 805.484 229.008 805.484 c 224.75 805.484 221.309 804.77
 218.684 803.336 c 218.684 797.992 l 221.773 799.844 225.098 800.77 228.66
 800.77 c 230.797 800.77 232.418 800.352 233.516 799.52 c 234.637 798.688
 235.195 797.555 235.195 796.117 c 235.195 794.453 234.582 793.16 233.352
 792.234 c 232.129 791.309 230.086 790.266 227.219 789.109 c 224.57 788.094
 222.453 786.82 220.863 785.293 c 219.262 783.77 218.461 781.711 218.461
 779.121 c 218.461 776.207 219.562 773.879 221.762 772.141 c 223.957 770.41
 226.699 769.543 229.992 769.543 c 233.637 769.543 236.574 770.055 238.805
 771.07 c 238.805 776.273 l 236.676 774.98 233.758 774.332 230.047 774.332
 c 228.199 774.332 226.73 774.758 225.648 775.609 c 224.559 776.469 224.012
 777.57 224.012 778.91 c 224.012 779.742 224.172 780.469 224.496 781.09 
c 224.82 781.719 225.461 782.336 226.414 782.938 c 227.355 783.539 228.051
 783.941 228.492 784.145 c 228.93 784.355 229.891 784.785 231.379 785.434
 c 234.332 786.637 236.641 788 238.305 789.527 c 239.98 791.055 240.816 
793.113 240.816 795.703 c h
251.836 798.617 m 252.621 799.402 253.016 800.375 253.016 801.531 c 253.016
 802.688 252.621 803.66 251.836 804.445 c 251.051 805.23 250.078 805.625
 248.922 805.625 c 247.766 805.625 246.793 805.23 246.008 804.445 c 245.219
 803.66 244.828 802.688 244.828 801.531 c 244.828 800.375 245.219 799.402
 246.008 798.617 c 246.793 797.832 247.766 797.438 248.922 797.438 c 250.078
 797.438 251.051 797.832 251.836 798.617 c h
265.504 769.891 m 265.504 805.07 l 260.023 805.07 l 260.023 769.891 l h
265.297 756.293 m 265.988 756.984 266.336 757.84 266.336 758.859 c 266.336
 759.875 265.988 760.719 265.297 761.383 c 264.602 762.059 263.746 762.398
 262.73 762.398 c 261.711 762.398 260.863 762.059 260.188 761.383 c 259.523
 760.719 259.191 759.875 259.191 758.859 c 259.191 757.84 259.523 756.984
 260.188 756.293 c 260.863 755.598 261.711 755.25 262.73 755.25 c 263.746
 755.25 264.602 755.598 265.297 756.293 c h
279.52 787.863 m 279.52 791.656 280.445 794.73 282.297 797.09 c 284.145
 799.449 286.48 800.629 289.305 800.629 c 292.172 800.629 294.609 799.566
 296.617 797.438 c 298.633 795.309 299.641 791.91 299.641 787.238 c 299.641
 782.797 298.602 779.535 296.52 777.453 c 294.438 775.371 292.148 774.332
 289.652 774.332 c 286.734 774.332 284.316 775.496 282.395 777.828 c 280.477
 780.168 279.52 783.516 279.52 787.863 c h
305.125 756.016 m 305.125 805.07 l 299.641 805.07 l 299.641 799.867 l 297.145
 803.707 293.535 805.625 288.816 805.625 c 284.145 805.625 280.477 803.891
 277.812 800.422 c 275.156 796.953 273.832 792.742 273.832 787.793 c 273.832
 782.289 275.242 777.832 278.062 774.43 c 280.883 771.035 284.516 769.336
 288.957 769.336 c 293.535 769.336 297.098 771.301 299.641 775.234 c 299.641
 756.016 l h
321.012 769.891 m 321.012 805.07 l 315.531 805.07 l 315.531 769.891 l h
320.805 756.293 m 321.5 756.984 321.844 757.84 321.844 758.859 c 321.844
 759.875 321.5 760.719 320.805 761.383 c 320.109 762.059 319.254 762.398
 318.238 762.398 c 317.219 762.398 316.375 762.059 315.699 761.383 c 315.031
 760.719 314.699 759.875 314.699 758.859 c 314.699 757.84 315.031 756.984
 315.699 756.293 c 316.375 755.598 317.219 755.25 318.238 755.25 c 319.254
 755.25 320.109 755.598 320.805 756.293 c h
335.016 798.617 m 335.801 799.402 336.195 800.375 336.195 801.531 c 336.195
 802.688 335.801 803.66 335.016 804.445 c 334.227 805.23 333.258 805.625
 332.102 805.625 c 330.945 805.625 329.973 805.23 329.188 804.445 c 328.398
 803.66 328.008 802.688 328.008 801.531 c 328.008 800.375 328.398 799.402
 329.188 798.617 c 329.973 797.832 330.945 797.438 332.102 797.438 c 333.258
 797.438 334.227 797.832 335.016 798.617 c h
370.68 780.855 m 370.68 805.07 l 365.199 805.07 l 365.199 782.312 l 365.199
 779.723 364.539 777.742 363.227 776.371 c 361.902 775.012 360.18 774.332
 358.051 774.332 c 355.414 774.332 353.137 775.352 351.223 777.387 c 349.301
 779.422 348.336 782.242 348.336 785.852 c 348.336 805.07 l 342.926 805.07
 l 342.926 769.891 l 348.336 769.891 l 348.336 775.996 l 350.418 771.602
 354.117 769.406 359.438 769.406 c 362.863 769.406 365.59 770.445 367.625
 772.527 c 369.66 774.609 370.68 777.387 370.68 780.855 c h
398.016 798.965 m 398.016 804.168 l 396.492 805 394.777 805.418 392.883
 805.418 c 385.945 805.418 382.473 801.879 382.473 794.801 c 382.473 774.332
 l 376.855 774.332 l 376.855 769.891 l 382.473 769.891 l 382.473 761.148
 l 387.957 761.148 l 387.957 769.891 l 397.668 769.891 l 397.668 774.332
 l 387.957 774.332 l 387.957 794.941 l 387.957 798.688 389.715 800.559 393.23
 800.559 c 395.031 800.559 396.629 800.027 398.016 798.965 c h
433.75 780.855 m 433.75 805.07 l 428.27 805.07 l 428.27 782.312 l 428.27
 779.723 427.605 777.742 426.285 776.371 c 424.973 775.012 423.25 774.332
 421.121 774.332 c 418.484 774.332 416.203 775.352 414.281 777.387 c 412.367
 779.422 411.406 782.242 411.406 785.852 c 411.406 805.07 l 405.996 805.07
 l 405.996 769.891 l 411.406 769.891 l 411.406 775.996 l 413.488 771.602
 417.191 769.406 422.512 769.406 c 425.934 769.406 428.66 770.445 430.699
 772.527 c 432.734 774.609 433.75 777.387 433.75 780.855 c h
470.789 769.891 m 470.789 805.07 l 465.309 805.07 l 465.309 798.965 l 463.457
 803.312 459.777 805.484 454.273 805.484 c 450.805 805.484 448.066 804.453
 446.059 802.391 c 444.043 800.336 443.035 797.574 443.035 794.105 c 443.035
 769.891 l 448.516 769.891 l 448.516 792.719 l 448.516 795.262 449.164 797.207
 450.457 798.547 c 451.754 799.891 453.512 800.559 455.73 800.559 c 458.645
 800.559 460.973 799.543 462.711 797.508 c 464.441 795.473 465.309 792.719
 465.309 789.25 c 465.309 769.891 l h
484.527 798.617 m 485.312 799.402 485.707 800.375 485.707 801.531 c 485.707
 802.688 485.312 803.66 484.527 804.445 c 483.742 805.23 482.77 805.625 
481.613 805.625 c 480.457 805.625 479.484 805.23 478.699 804.445 c 477.91
 803.66 477.52 802.688 477.52 801.531 c 477.52 800.375 477.91 799.402 478.699
 798.617 c 479.484 797.832 480.457 797.438 481.613 797.438 c 482.77 797.438
 483.742 797.832 484.527 798.617 c h
520.191 780.855 m 520.191 805.07 l 514.711 805.07 l 514.711 782.312 l 514.711
 779.723 514.047 777.742 512.727 776.371 c 511.41 775.012 509.691 774.332
 507.562 774.332 c 504.926 774.332 502.645 775.352 500.723 777.387 c 498.805
 779.422 497.848 782.242 497.848 785.852 c 497.848 805.07 l 492.438 805.07
 l 492.438 769.891 l 497.848 769.891 l 497.848 775.996 l 499.93 771.602 
503.629 769.406 508.949 769.406 c 512.375 769.406 515.102 770.445 517.137
 772.527 c 519.172 774.609 520.191 777.387 520.191 780.855 c h
560.852 787.586 m 560.852 792.812 559.371 797.137 556.41 800.559 c 553.449
 803.984 549.379 805.695 544.199 805.695 c 539.156 805.695 535.164 803.992
 532.223 800.586 c 529.281 797.191 527.809 792.902 527.809 787.723 c 527.809
 782.496 529.328 778.133 532.359 774.637 c 535.395 771.148 539.34 769.406
 544.199 769.406 c 549.52 769.406 553.621 771.117 556.508 774.539 c 559.402
 777.965 560.852 782.312 560.852 787.586 c h
533.512 787.652 m 533.512 791.309 534.484 794.418 536.426 796.98 c 538.371
 799.551 540.961 800.836 544.199 800.836 c 547.715 800.836 550.418 799.574
 552.316 797.047 c 554.211 794.531 555.16 791.402 555.16 787.652 c 555.16
 783.77 554.254 780.562 552.441 778.039 c 550.645 775.52 547.898 774.262
 544.199 774.262 c 540.867 774.262 538.254 775.559 536.359 778.148 c 534.461
 780.738 533.512 783.906 533.512 787.652 c h
533.512 787.652 m f
Q Q
showpage
%%Trailer
end
%%EOF
