<svg width="26" viewBox="0 0 64 63" fill="none" xmlns="http://www.w3.org/2000/svg">
<path d="M16.4436 15.5564L30.5857 29.6985L33.4142 32.527L47.5563 46.6691" stroke="#252525" stroke-width="4" stroke-linecap="round" stroke-linejoin="round"/>
<path d="M47.5564 15.5564L33.4143 29.6985L30.5858 32.527L16.4437 46.6691" stroke="#252525" stroke-width="4" stroke-linecap="round" stroke-linejoin="round"/>
</svg>
